{
  "page": 1,
  "total_results": 22,
  "total_pages": 2,
  "results": [
    {
      "vote_count": 5581,
      "id": 263115,
      "video": false,
      "vote_average": 7.5,
      "title": "Logan",
      "popularity": 50.901289,
      "poster_path": "\/gGBu0hKw9BGddG8RkRAMX7B6NDB.jpg",
      "original_language": "en",
      "original_title": "Logan",
      "genre_ids": [
        28,
        18,
        878
      ],
      "backdrop_path": "\/5pAGnkFYSsFJ99ZxDIYnhQbQFXs.jpg",
      "adult": false,
      "overview": "In the near future, a weary Logan cares for an ailing Professor X in a hideout on the Mexican border. But Logan's attempts to hide from the world and his legacy are upended when a young mutant arrives, pursued by dark forces.",
      "release_date": "2017-02-28"
    },
    {
      "vote_count": 40,
      "id": 399170,
      "video": false,
      "vote_average": 6.6,
      "title": "Logan Lucky",
      "popularity": 26.809548,
      "poster_path": "\/hXjPPf6gIMMl3Sy9D8pohwwhNWU.jpg",
      "original_language": "en",
      "original_title": "Logan Lucky",
      "genre_ids": [
        28,
        80,
        35
      ],
      "backdrop_path": "\/xFR8nZLVvXNSPNdMjdMC7K9bERB.jpg",
      "adult": false,
      "overview": "Trying to reverse a family curse, brothers Jimmy and Clyde Logan set out to execute an elaborate robbery during the legendary Coca-Cola 600 race at the Charlotte Motor Speedway.",
      "release_date": "2017-08-17"
    },
    {
      "vote_count": 2,
      "id": 44010,
      "video": false,
      "vote_average": 5.3,
      "title": "Logan",
      "popularity": 1.291647,
      "poster_path": "\/aPkm7UOymBBjUpDuXsyH3g5yU8O.jpg",
      "original_language": "en",
      "original_title": "Logan",
      "genre_ids": [
        35,
        18,
        10751
      ],
      "backdrop_path": null,
      "adult": false,
      "overview": "\"Logan\" is a story about two teenage brothers, Tyler and Logan. Logan, the younger of the two, has got his mind set on a seemingly impossible project which turns out to be much harder than he could ever imagine. At the turn of an unexpected tragedy, the brothers' relationship is altered forever and Tyler is challenged to do whatever it takes to see his little brother's project succeed, even if that means risking it all.",
      "release_date": "2010-09-10"
    },
    {
      "vote_count": 10,
      "id": 229801,
      "video": false,
      "vote_average": 5.4,
      "title": "Logan",
      "popularity": 1.109048,
      "poster_path": "\/7AGV84ZcdvoZNpxqjiktti8TXLO.jpg",
      "original_language": "en",
      "original_title": "Logan",
      "genre_ids": [
        18,
        27,
        9648
      ],
      "backdrop_path": null,
      "adult": false,
      "overview": "A lone man locked inside a dark room is violently interrogated about his identity. When his captors finally find out who he is, they realize that he isn't locked in with them, they are the ones locked in with him\u2026",
      "release_date": "2013-04-26"
    },
    {
      "vote_count": 310,
      "id": 297608,
      "video": false,
      "vote_average": 6,
      "title": "The Taking of Deborah Logan",
      "popularity": 2.193459,
      "poster_path": "\/lVHsBxkEXSH25TaUfyYF4KfrhlB.jpg",
      "original_language": "en",
      "original_title": "The Taking of Deborah Logan",
      "genre_ids": [
        27,
        9648,
        53
      ],
      "backdrop_path": "\/dHDQ0PhyH6B21OPYqApndkni2B6.jpg",
      "adult": false,
      "overview": "What starts as a poignant medical documentary about Deborah Logan's descent into Alzheimer's disease and her daughter's struggles as caregiver degenerates into a maddening portrayal of dementia at its most frightening, as hair-raising events begin to plague the family and crew and an unspeakable malevolence threatens to tear the very fabric of sanity from them all.",
      "release_date": "2014-10-21"
    },
    {
      "vote_count": 1,
      "id": 446207,
      "video": false,
      "vote_average": 10,
      "title": "Jack Logan",
      "popularity": 1.066314,
      "poster_path": null,
      "original_language": "en",
      "original_title": "Jack Logan",
      "genre_ids": [

      ],
      "backdrop_path": null,
      "adult": false,
      "overview": "In 1920 the last of a band of traveling gypsies are killed to make way for the development of St. George Island. Now after 96 years, life is breathed back into an ancient terror. With only vengeance in mind, all trespassers on St. George Island are murdered in gruesome fashion .",
      "release_date": "2016-04-30"
    },
    {
      "vote_count": 0,
      "id": 467721,
      "video": false,
      "vote_average": 0,
      "title": "Giuseppi Logan",
      "popularity": 1.001882,
      "poster_path": null,
      "original_language": "en",
      "original_title": "Giuseppi Logan",
      "genre_ids": [
        99,
        10402
      ],
      "backdrop_path": null,
      "adult": false,
      "overview": "Some of the problems facing Giuseppi are juxtaposed with his music, Satan's Dance. The pictures depict the opposite view which is fortuitously any sunny day in the park with his wife and son. The joy of the boy is the inspiration of the father. A straight-forward, simple documentary.",
      "release_date": "1966-01-01"
    },
    {
      "vote_count": 261,
      "id": 10803,
      "video": false,
      "vote_average": 6.6,
      "title": "Logan's Run",
      "popularity": 2.147521,
      "poster_path": "\/iBtkwot48QkgYpPfjceCgyK1Rhz.jpg",
      "original_language": "en",
      "original_title": "Logan's Run",
      "genre_ids": [
        12,
        28,
        10749,
        878
      ],
      "backdrop_path": "\/a68m6hfvFLctuq1IhrefWwHZLa2.jpg",
      "adult": false,
      "overview": "An idyllic sci-fi future has one major drawback:, all citizens get a chance of being 'renewed' in a Civic Ceremony, at their 30th birthday, unless you run and escape before your time.",
      "release_date": "1976-06-23"
    },
    {
      "vote_count": 0,
      "id": 347053,
      "video": false,
      "vote_average": 0,
      "title": "Mr. Logan, U.S.A.",
      "popularity": 1.033218,
      "poster_path": "\/aKijsuQsCPJuDQOhLsatoUcA581.jpg",
      "original_language": "en",
      "original_title": "Mr. Logan, U.S.A.",
      "genre_ids": [
        10752,
        37
      ],
      "backdrop_path": null,
      "adult": false,
      "overview": "Silent drama......",
      "release_date": "1918-09-08"
    },
    {
      "vote_count": 1,
      "id": 180909,
      "video": false,
      "vote_average": 2,
      "title": "Hard Time: The Premonition",
      "popularity": 1.029295,
      "poster_path": "\/hMc2Z8eTJt1ituuVam5NzaOFkQ.jpg",
      "original_language": "en",
      "original_title": "Hard Time: The Premonition",
      "genre_ids": [

      ],
      "backdrop_path": null,
      "adult": false,
      "overview": "Burt Reynolds plays Logan McQueen, the hardest and most fearless cop in Florida. A series of attacks begins to happen in Miami, everyone of them meticulously carried out by a person who seems to be an extremely lethal terrorist. Buildings, schools, public places, everything is destroyed by the bombs. When trying hopelessly to find and to destroy the terrorist, Logan McQueen ends up getting closer to a convict who says that he is capable to foresee the explosions. Now, Logan will have to team up with the man and find the terrorist.",
      "release_date": "1999-02-27"
    },
    {
      "vote_count": 2,
      "id": 180907,
      "video": false,
      "vote_average": 4.5,
      "title": "Hard Time",
      "popularity": 1.279137,
      "poster_path": "\/nCgYLnDfky9GauYDkdfG2vJDQP6.jpg",
      "original_language": "en",
      "original_title": "Hard Time",
      "genre_ids": [
        28,
        80,
        18
      ],
      "backdrop_path": null,
      "adult": false,
      "overview": "Burt Reynolds plays Logan McQueen, a veteran, tough cop who likes to see justice done by his own ways. Things go bad after McQueen is framed for murder. Now he has to escape from a maximum security prison, and seek, on the deadly streets of a hot and dangerous Miami, for the man who wants him down...",
      "release_date": "1998-12-12"
    },
    {
      "vote_count": 5,
      "id": 78286,
      "video": false,
      "vote_average": 3.8,
      "title": "The Kate Logan affair",
      "popularity": 1.009423,
      "poster_path": "\/9MJMtdxti4eQ9d5qIzcWpKiFD0J.jpg",
      "original_language": "fr",
      "original_title": "The Kate Logan affair",
      "genre_ids": [
        18,
        53
      ],
      "backdrop_path": "\/oel7LRzvRE308Sirl54lLjISMws.jpg",
      "adult": false,
      "overview": "A young psychologically unstable young police woman named Kate Logan and a married Frenchman find themselves caught up in a dramatic twisted affair.",
      "release_date": "2010-10-15"
    },
    {
      "vote_count": 0,
      "id": 270585,
      "video": false,
      "vote_average": 0,
      "title": "Agente Logan - missione Ypotron",
      "popularity": 1.122334,
      "poster_path": "\/eIpLLJHwsmFL3xBOm5QOKEWoUP1.jpg",
      "original_language": "en",
      "original_title": "Agente Logan - missione Ypotron",
      "genre_ids": [
        28,
        12,
        80,
        878,
        53
      ],
      "backdrop_path": "\/z3YnD9nACawVsbrK3cZOFt8pkDN.jpg",
      "adult": false,
      "overview": "Agent Lemmy Logan is investigating the case of a missing NASA scientist and discovers that an ex nazi is developing  a new super weapon.",
      "release_date": "1966-08-28"
    },
    {
      "vote_count": 0,
      "id": 310652,
      "video": false,
      "vote_average": 0,
      "title": "Andrew Logan Kisses The Glitterati",
      "popularity": 1.0006,
      "poster_path": "\/xjGtkbeN9alYsNorhQlL1oCm74q.jpg",
      "original_language": "en",
      "original_title": "Andrew Logan Kisses The Glitterati",
      "genre_ids": [

      ],
      "backdrop_path": null,
      "adult": false,
      "overview": "An experimental short film by Derek Jarman enlivens urban surrounding with the presence of a human being.",
      "release_date": "1972-01-01"
    },
    {
      "vote_count": 2,
      "id": 22519,
      "video": false,
      "vote_average": 2,
      "title": "The Two Worlds of Jennie Logan",
      "popularity": 1.073286,
      "poster_path": "\/s2OTVXpfKPfup1WKGXC4nUl0PDM.jpg",
      "original_language": "en",
      "original_title": "The Two Worlds of Jennie Logan",
      "genre_ids": [
        10749,
        18
      ],
      "backdrop_path": null,
      "adult": false,
      "overview": "This movie is about a woman who is trying to rebuild her shattered marriage. She and her husband move to an old Victorian style home, where she finds a beautiful dress in the attic, which has a tear in the shoulder. She has the dress repaired. When she tries it on in the restored attic, she suddenly finds herself in another era. This time travel seems to happen whenever she wears the dress. She learns the house was once owned by an artist who died under mysterious circumstances. She meets the artist and eventually falls in love with him. Knowing what she does about his fate, can her love save him and change history?",
      "release_date": "1979-10-31"
    },
    {
      "vote_count": 1,
      "id": 413749,
      "video": false,
      "vote_average": 10,
      "title": "Logan's Run",
      "popularity": 1.125589,
      "poster_path": null,
      "original_language": "en",
      "original_title": "Logan's Run",
      "genre_ids": [
        28,
        12,
        18,
        878,
        53
      ],
      "backdrop_path": null,
      "adult": false,
      "overview": "A remake of the dystopian 1976 science fiction film Logan\u2019s Run.",
      "release_date": ""
    },
    {
      "vote_count": 2,
      "id": 41241,
      "video": false,
      "vote_average": 5.3,
      "title": "Hard Time: Hostage Hotel",
      "popularity": 1.025107,
      "poster_path": "\/AeIypKlh3YEShFr8b1VFvRzs5e9.jpg",
      "original_language": "en",
      "original_title": "Hard Time: Hostage Hotel",
      "genre_ids": [
        10770,
        28,
        53
      ],
      "backdrop_path": "\/7ClphEABdkVh6GTRsAeryCoQO8D.jpg",
      "adult": false,
      "overview": "A California congressman's wife and daughter are abducted and held hostage in a historic hotel and Logan McQueen (Reynolds) is rushed to the scene to assist his former partner, Charlie Duffy (Durning), who has been taken captive trying to broker the ransom deal. McQueen must risk his life to face the cunning killer (Carradine) and save the hostages and his long-time friend.",
      "release_date": "1999-11-14"
    },
    {
      "vote_count": 0,
      "id": 471594,
      "video": true,
      "vote_average": 0,
      "title": "Johnny Logan - We All Need Love",
      "popularity": 1.0063,
      "poster_path": "\/lXao0GTvKIlftBZmtjPEttWr1Qh.jpg",
      "original_language": "en",
      "original_title": "Johnny Logan - We All Need Love",
      "genre_ids": [

      ],
      "backdrop_path": null,
      "adult": false,
      "overview": "Johnny Logan, the man, the voice, the performer \u2013 is giving his all in this high powered performance in front of an enthusiastic crowd. These concerts from his 2003 European tour takes you on a musical journey which more then anything else establishes Johnny Logan as one of the best performers of his time. Get behind the charismatic artist as he relives some of the private and public highlights of his more then 20 years in showbiz. Unplugged and relaxed he invites you to meet him on the other side of midnight in this very unique and revealing show. 2 Disc set including a DVD featuring Johnny live in concert, and an in depth interview.",
      "release_date": ""
    },
    {
      "vote_count": 244,
      "id": 106021,
      "video": false,
      "vote_average": 5.5,
      "title": "Erased",
      "popularity": 3.419736,
      "poster_path": "\/cSyFaSCdauIsmHoAwDaeVehkTqA.jpg",
      "original_language": "en",
      "original_title": "Erased",
      "genre_ids": [
        28,
        53
      ],
      "backdrop_path": "\/oj8tfpfRP0pjdp96zvZJhtFy0jk.jpg",
      "adult": false,
      "overview": "A former agent of the CIA and his estranged daughter go on the run after his employers target them for assassination.",
      "release_date": "2012-09-27"
    },
    {
      "vote_count": 0,
      "id": 87901,
      "video": false,
      "vote_average": 0,
      "title": "Exiled",
      "popularity": 1.018374,
      "poster_path": "\/cfnuIcE9Wm9nEqN4dae1uCJuE5P.jpg",
      "original_language": "en",
      "original_title": "Exiled",
      "genre_ids": [
        10770,
        80,
        18
      ],
      "backdrop_path": null,
      "adult": false,
      "overview": "A Law &amp; Order TV movie centered on the character Mike Logan.",
      "release_date": "1998-11-08"
    }
  ]
}